{
  "project_info": {
    "project_number": "573857683642",
    "firebase_url": "https://a3naab-a675b.firebaseio.com",
    "project_id": "a3naab-a675b",
    "storage_bucket": "a3naab-a675b.appspot.com"
  },
  "client": [
    {
      "client_info": {
        "mobilesdk_app_id": "1:573857683642:android:951526bd684154969d0a83",
        "android_client_info": {
          "package_name": "com.app.a3d"
        }
      },
      "oauth_client": [
        {
          "client_id": "573857683642-0sbnu1btgdfql8tanrghhs6f7g92ulhk.apps.googleusercontent.com",
          "client_type": 1,
          "android_info": {
            "package_name": "com.app.a3d",
            "certificate_hash": "4bb4de7e2988aa406bbcbe08902e9be5da72840e"
          }
        },
        {
          "client_id": "573857683642-ffc4o11rhgeif9tfm3ln1v9jc66ia6cn.apps.googleusercontent.com",
          "client_type": 1,
          "android_info": {
            "package_name": "com.app.a3d",
            "certificate_hash": "da9b7a83fe1fa3066bf7c2ac7dc78b6af77113bd"
          }
        },
        {
          "client_id": "573857683642-p6r0hn6c2utuka80g6rve5dmqqmhopqt.apps.googleusercontent.com",
          "client_type": 1,
          "android_info": {
            "package_name": "com.app.a3d",
            "certificate_hash": "4a7de3736f8b8935a9e5dda0052a5d98557be49b"
          }
        },
        {
          "client_id": "573857683642-r8o63iteuva5la1jn9lfb95jjtuir9s1.apps.googleusercontent.com",
          "client_type": 3
        }
      ],
      "api_key": [
        {
          "current_key": "AIzaSyCo30QYfqFE5VRkmedHVi2CoTHh2iGgFyU"
        }
      ],
      "services": {
        "appinvite_service": {
          "other_platform_oauth_client": [
            {
              "client_id": "573857683642-r8o63iteuva5la1jn9lfb95jjtuir9s1.apps.googleusercontent.com",
              "client_type": 3
            },
            {
              "client_id": "573857683642-15spk9skpnil8d6m2ujgtg8a16fk4vvt.apps.googleusercontent.com",
              "client_type": 2,
              "ios_info": {
                "bundle_id": "com.app.A3naab"
              }
            }
          ]
        }
      }
    },
    {
      "client_info": {
        "mobilesdk_app_id": "1:573857683642:android:07acacfbc85352169d0a83",
        "android_client_info": {
          "package_name": "com.app.a3naab"
        }
      },
      "oauth_client": [
        {
          "client_id": "573857683642-l99s3kmgj1ilqa7rm1dpekdoj3pgke12.apps.googleusercontent.com",
          "client_type": 1,
          "android_info": {
            "package_name": "com.app.a3naab",
            "certificate_hash": "4a7de3736f8b8935a9e5dda0052a5d98557be49b"
          }
        },
        {
          "client_id": "573857683642-v2e9gkt9bjj8cuh3bt2ac7krhmjoj2nn.apps.googleusercontent.com",
          "client_type": 1,
          "android_info": {
            "package_name": "com.app.a3naab",
            "certificate_hash": "da9b7a83fe1fa3066bf7c2ac7dc78b6af77113bd"
          }
        },
        {
          "client_id": "573857683642-r8o63iteuva5la1jn9lfb95jjtuir9s1.apps.googleusercontent.com",
          "client_type": 3
        }
      ],
      "api_key": [
        {
          "current_key": "AIzaSyCo30QYfqFE5VRkmedHVi2CoTHh2iGgFyU"
        }
      ],
      "services": {
        "appinvite_service": {
          "other_platform_oauth_client": [
            {
              "client_id": "573857683642-r8o63iteuva5la1jn9lfb95jjtuir9s1.apps.googleusercontent.com",
              "client_type": 3
            },
            {
              "client_id": "573857683642-15spk9skpnil8d6m2ujgtg8a16fk4vvt.apps.googleusercontent.com",
              "client_type": 2,
              "ios_info": {
                "bundle_id": "com.app.A3naab"
              }
            }
          ]
        }
      }
    },
    {
      "client_info": {
        "mobilesdk_app_id": "1:573857683642:android:670a0aea563b665b9d0a83",
        "android_client_info": {
          "package_name": "com.app.a3store"
        }
      },
      "oauth_client": [
        {
          "client_id": "573857683642-0pftt1soavfv938ahjbd1mse2k4a8r3q.apps.googleusercontent.com",
          "client_type": 1,
          "android_info": {
            "package_name": "com.app.a3store",
            "certificate_hash": "4bb4de7e2988aa406bbcbe08902e9be5da72840e"
          }
        },
        {
          "client_id": "573857683642-2kjc26bl7opfbuod1vrrlup54laevi2t.apps.googleusercontent.com",
          "client_type": 1,
          "android_info": {
            "package_name": "com.app.a3store",
            "certificate_hash": "2f501d93596b8de0dcbec9cb1d3da991f6eb451d"
          }
        },
        {
          "client_id": "573857683642-r8o63iteuva5la1jn9lfb95jjtuir9s1.apps.googleusercontent.com",
          "client_type": 3
        }
      ],
      "api_key": [
        {
          "current_key": "AIzaSyCo30QYfqFE5VRkmedHVi2CoTHh2iGgFyU"
        }
      ],
      "services": {
        "appinvite_service": {
          "other_platform_oauth_client": [
            {
              "client_id": "573857683642-r8o63iteuva5la1jn9lfb95jjtuir9s1.apps.googleusercontent.com",
              "client_type": 3
            },
            {
              "client_id": "573857683642-15spk9skpnil8d6m2ujgtg8a16fk4vvt.apps.googleusercontent.com",
              "client_type": 2,
              "ios_info": {
                "bundle_id": "com.app.A3naab"
              }
            }
          ]
        }
      }
    }
  ],
  "configuration_version": "1"
}